:100003000003050911FF118905C300E000F000F8A2
:10001300000000000000004428FF11AA4400000073
:1000230000000000000000000000000000000000CD
:1000330000000000000000000000000000000000BD
:1000430000000000000000000000000000000000AD
:100053000000000000000000000083013844829289
:1000630092740183000000000000007C44FF017DC6
:100073007D7D017D7D7D7D017D7D7D7D7D01FF001C
:100083000000000000010001000100010001000167
:10009300000000000000000000010100000000005B
:1000A300000000000000000000000000000000004D
:1000B300000000000000000000000000000000003D
:1000C300000000000000000000000000000000002D
:1000D300000000000000000000000101000000001B
:1000E3000000010100000000000000000001010108
:1000F30001010101010101010101010101010100EE
:1001030000000000000000000000000000000000EC
:100113000000000000000000000000003F3F030358
:10012300F31311111111111101F111618101010178
:10013300816111F1010101014141F101010101015C
:10014300C1211111111121C1010101014141F1012C
:100153000101010101010101011111111111D33338
:1001630003033F3F00000000000000000000000008
:10017300000000000000000000000000000000007C
:10018300000000000000000000000000000000006C
:10019300000000000000000000000000E0E000009C
:1001A3007F01010101010100007F00000106180623
:1001B3000100007F0000000040407F40400000003D
:1001C3001F2040404040201F0000000040407F406F
:1001D3004000000000600000000040300C030000FD
:1001E3000000E0E00000000000000000000000004C
:1001F30000000000000000000000000000000000FC
:1002030000000000000000000000000000000000EB
:1002130000000000000000000000000007070606C1
:100223000606040404844444448404048444444487
:100233008404040484C404040404844444448404FB
:1002430004040404844444448404040404048444EB
:100253004444840404844444448404040404060697
:100263000606070700000000000000000000000071
:10027300000000000000000000000000000000007B
:10028300000000000000000000000000000000006B
:10029300000000000000000000000000000000005B
:1002A3000000000000101814121100000F101010AD
:1002B3000F000000101F10000000081012120D00A4
:1002C300001800000D1212120D0000180000101883
:1002D3001412110000101814121100000000000085
:1002E300000000000000000000000000000000000B
:1002F30000000000000000000000000000000000FB
:1003030000000000000000000000000000000000EA
:1003130000000000000000000000000000000000DA
:1003230000000000000000000000000000000000CA
:1003330000000000000000000000000080808080BA
:1003430080808080000000000000000000000000AA
:10035300000000000000000000000000000000009A
:10036300000000000000000000000000000000008A
:10037300000000000000000000000000000000007A
:10038300007F030C300C037F0000385454580000E6
:100393007C04047800003C40407C00000000000026
:1003A300000000000000000000000000000000004A
:1003B300000000000000000000000000FFAAAAAA3D
:1003C300280800FF000000000000000000000000FB
:1003D300000000000000000000000000000000001A
:1003E3000000000000000000007F030C300C037FBE
:1003F3000000264949493200007F020408107F00AB
:100403007FAE1205167F201205167F101205167F88
:10041300B01205167FC8120516E4FF1205167F10E9
:100423001205167F401205167F811205167F7F1273
:1004330005167FA11205167FA61205167FA81205C1
:10044300167F3F1205167FA41205167FD3120516D9
:10045300E4FF1205167FD51205167FF01205167FED
:10046300D91205167F221205167FDA1205167F129E
:100473001205167FDB1205167F201205167F8D12DB
:0C04830005167F141205167FAF02051647
:09058C00D293D292C292C29322D2
:09059500C293C292D293D29222C9
:0704BE00AD0712058C7F78E9
:1004C500E4FEEF30E704D2928002C292D293C29347
:0E04D500EF25E0FF0EBE08EAD292D293C2934A
:0104E30022F6
:0D05090024B0FF120516E4FF1205167F1046
:100516001204BEE4FF1204C5AF051204C502059518
:100570001204BE7F401204C5AF051204C5020595E2
:02054200AC0704
:10054400E4FBEB120509E4FAAF041205700ABA8061
:05055400F70BBB08EDF0
:01055900227F
:10048F00E4F508F509FCEC120509E4FB0509E5099B
:10049F00AE0870020508142403F58274003EF5833C
:0E04AF00E493FF1205700BBB80E20CBC08D872
:0104BD00221C
:0704E4001205427F197E00A2
:1004EB00D3EF9400EE940040147D657C18ED1D70E5
:0D04FB00011CED4C70F7EF1F70E61E80E352
:0105080022D0
:10055A00EF1FAA0670011E4A600BE4FDEDC3947BEF
:05056A0050EE0D80F7CA
:01056F002269
:100526001204037F057E0012055A7FFF1204E47F42
:0C053600F01204E412048F1204E780EEBF
:0300000002058076
:0C058000787FE4F6D8FD7581090205269D
:00000001FF
